No		Número SAP	Entidad	Detalle		Tipo	Emisión	Documento	Vencimiento	Estatus	Resultado	Actualizado	Acción
1		2400001	Contratos		ver más	Contrato de servicio	-	-	-	Por cargar		-	
2		2400001	Contratistas	76652559-8 Sistemas de control de procesos SpA	ver más	Contrato de servicio	-	-	-	Por cargar		-	
3		2400001	Contratistas	76652559-8 Sistemas de control de procesos SpA	ver más	Estado de resultado periodo anterior	-	-	-	Por cargar		-	
4			Contratistas	76652559-8 Sistemas de control de procesos SpA	ver más	Copia de constitución como empresa	09/2016	Ver	26/11/2016	No aprobado		27/09/2016	
5		2013990	Personas	6342467-7 EXEQUIEL ACEVEDO VARGAS	ver más	Asistencia a inducción a charla de seguridad	-	Ver	26/10/2016	Por cargar		-	
6		2013990	Personas	6342467-7 EXEQUIEL ACEVEDO VARGAS	ver más	Acuse recibo de restricciones de seguridad	-	-	-	Por cargar		-	
7		2013990	Contratos	VPS S.A. 2013990	ver más	Contrato de servicio	-	-	26/10/2016	Por cargar		-	
8		2013990	Contratos	VPS S.A. 2013990	ver más	Archivo formato F30-1	-	-	-	Por cargar		-	
9		2013990	Contratistas	79870750-7 Transporte Alba Limitada	ver más	Contrato de servicio	-	-	26/10/2016	Por cargar		-	
10		2013990	Contratistas	79870750-7 Transporte Alba Limitada	ver más	Estado de resultado periodo anterior	-	-	-	Por cargar		-	
11		2013990	Contratistas	79870750-7 Transporte Alba Limitada	ver más	Copia de constitución como empresa	-	-	-	Por cargar		-	
12		2013990	Personas	9475325-2 RENE ALEGRIA SEGOVIA	ver más	Asistencia a inducción a charla de seguridad	-	-	-	Por cargar		-	
13		2013990	Personas	9475325-2 RENE ALEGRIA SEGOVIA	ver más	Acuse recibo de restricciones de seguridad	-	-	-	Por cargar		-	
14		2013990	Personas	6169765-9 MANUEL CORNEJO FIGUEROA	ver más	Asistencia a inducción a charla de seguridad	-	-	-	Por cargar		-	
15		2013990	Personas	6169765-9 MANUEL CORNEJO FIGUEROA	ver más	Acuse recibo de restricciones de seguridad	-	-	-	Por cargar		-	
16		2013990	Personas	9088131-0 ALEXIS HERNANDEZ CERPA	ver más	Asistencia a inducción a charla de seguridad	-	-	-	Por cargar		-	
17		2013990	Personas	9088131-0 ALEXIS HERNANDEZ CERPA	ver más	Acuse recibo de restricciones de seguridad	-	-	-	Por cargar		-	
18		2013990	Personas	12237336-3 CRISTIAN GUAQUIANTE ORTEGA	ver más	Asistencia a inducción a charla de seguridad	-	-	-	Por cargar		-	
19		2013990	Personas	12237336-3 CRISTIAN GUAQUIANTE ORTEGA	ver más	Acuse recibo de restricciones de seguridad	-	-	-	Por cargar		-	
20		461111	Contratos		ver más	Contrato de servicio	-	-	-	Por cargar		-	
21		461111	Contratos		ver más	Archivo formato F30-1	-	-	-	Por cargar		-	
22		461111	Contratistas	78880560-8 VPS S.A.	ver más	Contrato de servicio	-	-	-	Por cargar		-	
23		461111	Contratistas	78880560-8 VPS S.A.	ver más	Estado de resultado periodo anterior	-	-	-	Por cargar		-	
24		461111	Contratistas	78880560-8 VPS S.A.	ver más	Copia de constitución como empresa	-	-	-	Por cargar		-	
25		461111	Personas	14142795-4 DIEGO HERNANDEZ OSSES	ver más	Asistencia a inducción a charla de seguridad	-	-	-	Por cargar		-	
26		461111	Personas	14142795-4 DIEGO HERNANDEZ OSSES	ver más	Acuse recibo de restricciones de seguridad	-	-	-	Por cargar		-	
27		461111	Personas	6342467-7 EXEQUIEL ACEVEDO VARGAS	ver más	Contrato de trabajo	-	-	-	Por cargar		-	
28		461111	Personas	6495694-9 CARLOS JARA FERNANDEZ	ver más	Asistencia a inducción a charla de seguridad	-	-	-	Por cargar		-	
29		461111	Personas	6495694-9 CARLOS JARA FERNANDEZ	ver más	Acuse recibo de restricciones de seguridad	-	-	-	Por cargar		-	
30		461111	Personas	6495694-9 CARLOS JARA FERNANDEZ	ver más	Contrato de trabajo	-	-	-	Por cargar		-	
31		461111	Personas	14142795-4 DIEGO HERNANDEZ OSSES	ver más	Contrato de trabajo	-	-	-	Por cargar		-	
32		461111	Contratos		ver más	Archivo formato F30-1	-	-	-	Por cargar		-	
33		2013990	Contratos	VPS S.A. 2013990	ver más	Archivo formato F30-1	-	-	-	Por cargar		-	
34		2013990	Personas	6169765-9 MANUEL CORNEJO FIGUEROA	ver más	Contrato de trabajo	-	-	-	Por cargar		-	
35		2013990	Personas	9088131-0 ALEXIS HERNANDEZ CERPA	ver más	Contrato de trabajo	-	-	-	Por cargar		-	
36		2013990	Personas	12237336-3 CRISTIAN GUAQUIANTE ORTEGA	ver más	Contrato de trabajo	-	-	01/11/2016	Por cargar		-	
37		2400001	Contratos		ver más	Archivo formato F30-1	-	-	-	Por cargar		-	
38		2400001	Contratos		ver más	Archivo formato F30-1	-	-	-	Por cargar		-	
39		2014843	Personas	13491610-9 JAVIER AVILA GONZALEZ	ver más	Asistencia a inducción a charla de seguridad	-	-	-	Por cargar		-	
40		2014843	Personas	13491610-9 JAVIER AVILA GONZALEZ	ver más	Acuse recibo de restricciones de seguridad	-	-	-	Por cargar		-	
41		2014843	Personas	13491610-9 JAVIER AVILA GONZALEZ	ver más	Contrato de trabajo	-	-	-	Por cargar		-	
42		2014843	Contratos	TRANSPORTES VIC-BEN S.A. 2014843	ver más	Contrato de servicio	-	-	-	Por cargar		-	
43		2014843	Contratos	TRANSPORTES VIC-BEN S.A. 2014843	ver más	Archivo formato F30-1	-	-	-	Por cargar		-	
44		2014843	Contratos	TRANSPORTES VIC-BEN S.A. 2014843	ver más	Archivo formato F30-1	-	-	-	Por cargar		-	
45		2014843	Contratistas	1-9 prueba	ver más	Contrato de servicio	-	-	-	Por cargar		-	
46		2014843	Contratistas	1-9 prueba	ver más	Estado de resultado periodo anterior	-	-	-	Por cargar		-	
47		2014843	Contratistas	1-9 prueba	ver más	Copia de constitución como empresa	-	-	-	Por cargar		-	
48		2014843	Personas	12013401-9 CLAUDIO CARRIEL GUAJARDO	ver más	Asistencia a inducción a charla de seguridad	-	-	-	Por cargar		-	
49		2014843	Personas	12013401-9 CLAUDIO CARRIEL GUAJARDO	ver más	Acuse recibo de restricciones de seguridad	-	-	-	Por cargar		-	
50		2014843	Personas	12013401-9 CLAUDIO CARRIEL GUAJARDO	ver más	Contrato de trabajo	-	-	-	Por cargar		-	
51		2014843	Personas	7930738-6 ALEJANDRO COFRE MARCHANT	ver más	Asistencia a inducción a charla de seguridad	-	-	-	Por cargar		-	
52		2014843	Personas	7930738-6 ALEJANDRO COFRE MARCHANT	ver más	Acuse recibo de restricciones de seguridad	-	-	-	Por cargar		-	
53		2014843	Personas	7930738-6 ALEJANDRO COFRE MARCHANT	ver más	Contrato de trabajo	-	-	-	Por cargar		-	
54		2014843	Contratos	SOC. DE TRANSPORTES TRANS-HECA LTDA. 2014843	ver más	Contrato de servicio	-	-	-	Por cargar		-	
55		2014843	Contratos	SOC. DE TRANSPORTES TRANS-HECA LTDA. 2014843	ver más	Archivo formato F30-1	-	-	-	Por cargar		-	
56		2014843	Contratos	SOC. DE TRANSPORTES TRANS-HECA LTDA. 2014843	ver más	Archivo formato F30-1	-	-	-	Por cargar		-	
57		2014843	Personas	13492091-2 CRISTIAN CANCINO HERMOSILLA	ver más	Asistencia a inducción a charla de seguridad	-	-	-	Por cargar		-	
58		2014843	Personas	13492091-2 CRISTIAN CANCINO HERMOSILLA	ver más	Acuse recibo de restricciones de seguridad	-	-	-	Por cargar		-	
59		2014843	Personas	13492091-2 CRISTIAN CANCINO HERMOSILLA	ver más	Contrato de trabajo	-	-	-	Por cargar		-	
60		2014961	Personas	12276956-9 JOSE CONTRERAS DIAZ	ver más	Asistencia a inducción a charla de seguridad	-	-	-	Por cargar		-	
61		2014961	Personas	12276956-9 JOSE CONTRERAS DIAZ	ver más	Acuse recibo de restricciones de seguridad	-	-	-	Por cargar		-	
62		2014961	Personas	12276956-9 JOSE CONTRERAS DIAZ	ver más	Contrato de trabajo	-	-	-	Por cargar		-	
63		2014961	Contratistas	76178360-2 Central Restaurantes Aramark Ltda.	ver más	Contrato de servicio	-	-	-	Por cargar		-	
64		2014961	Contratistas	76178360-2 Central Restaurantes Aramark Ltda.	ver más	Estado de resultado periodo anterior	-	-	-	No aprobado		-	
65		2014961	Contratistas	76178360-2 Central Restaurantes Aramark Ltda.	ver más	Copia de constitución como empresa	-	-	-	No aprobado		-	
66		2014961	Personas	13693417-1 CAMILO DIAZ NIETO	ver más	Asistencia a inducción a charla de seguridad	-	-	-	Por cargar		-	
67		2014961	Personas	13693417-1 CAMILO DIAZ NIETO	ver más	Acuse recibo de restricciones de seguridad	-	-	-	Por cargar		-	
68		2014961	Personas	13693417-1 CAMILO DIAZ NIETO	ver más	Contrato de trabajo	-	-	-	Por cargar		-	
69		2014961	Personas	11488849-4 Guillermo Andres Gajardo Meneses	ver más	Asistencia a inducción a charla de seguridad	-	-	-	Por cargar		-	
70		2014961	Personas	11488849-4 Guillermo Andres Gajardo Meneses	ver más	Acuse recibo de restricciones de seguridad	-	-	-	Por cargar		-	
71		2014961	Personas	11488849-4 Guillermo Andres Gajardo Meneses	ver más	Contrato de trabajo	-	-	-	Por cargar		-	
72			Contratistas	1-9 prueba	ver más	Accidentabilidad	10/2016	Ver	20/10/2016	Por aprobar		12/10/2016	
73			Contratistas	15382901-2 Sistemas Informaticos DHGS	ver más	Accidentabilidad	-	-	-	Por cargar		-	
74			Contratistas	78880560-8 VPS S.A.	ver más	Accidentabilidad	-	-	-	Por cargar		-	
75			Contratistas	79870750-7 Transporte Alba Limitada	ver más	Accidentabilidad	-	-	-	Por cargar		-	
76			Contratistas	76355804-5 Sourcing SpA	ver más	Accidentabilidad	-	-	-	Por cargar		-	
77			Contratistas	76178360-2 Central Restaurantes Aramark Ltda.	ver más	Accidentabilidad	-	-	-	Por cargar		-	
78			Contratistas	76652559-8 Sistemas de control de procesos SpA	ver más	Accidentabilidad	-	-	-	Por cargar		-	
79			Contratos	VPS S.A. 2013990	ver más	multas inspección del trabajo 1	10/2016	Ver	31/10/2016	Por aprobar		12/10/2016	
80			Contratos	TRANSPORTES TRANSWELL S.A. 2014961	ver más	multas inspección del trabajo 1	-	-	-	Por cargar		-	
81			Contratos	SOC. DE TRANSPORTES TRANS-HECA LTDA. 2014843	ver más	multas inspección del trabajo 1	-	-	-	Por cargar		-	
82			Contratos	TRANSPORTES VIC-BEN S.A. 2014843	ver más	multas inspección del trabajo 1	-	-	-	Por cargar		-	
83			Contratos		ver más	multas inspección del trabajo 1	-	-	-	Por cargar		-	
84			Contratos		ver más	multas inspección del trabajo 1	-	-	-	Por cargar		-	
85			Contratos		ver más	multas inspección del trabajo 1	-	-	-	Por cargar		-	
86			Contratos		ver más	multas inspección del trabajo 1	-	-	-	Por cargar		-	
87			Contratos		ver más	multas inspección del trabajo 1	-	-	-	Por cargar		-	
88			Contratos		ver más	multas inspección del trabajo 1	-	-	-	Por cargar		-	
89			Contratistas	1-9 prueba	ver más	siniestralidad	-	-	-	Por cargar		-	
90			Contratistas	15382901-2 Sistemas Informaticos DHGS	ver más	siniestralidad	-	-	-	Por cargar		-	
91			Contratistas	78880560-8 VPS S.A.	ver más	siniestralidad	10/2016	Ver	27/10/2016	Por aprobar		13/10/2016	
92			Contratistas	79870750-7 Transporte Alba Limitada	ver más	siniestralidad	-	-	-	Por cargar		-	
93			Contratistas	76355804-5 Sourcing SpA	ver más	siniestralidad	-	-	-	Por cargar		-	
94			Contratistas	76178360-2 Central Restaurantes Aramark Ltda.	ver más	siniestralidad	-	-	-	Por cargar		-	
95			Contratistas	76652559-8 Sistemas de control de procesos SpA	ver más	siniestralidad	-	-	-	Por cargar		-	